Workshop 3: Ecosystem stability – BSC6926-B53B Spring 2025
…
# save output
write_csv(df_ov, 'data/SAV_centDist.csv')

## Rows: 720 Columns: 10
## ── Column specification ────────────────────────────────────────────────────────
## Delimiter: ","
## chr (1): BASIN
## dbl (9): y1, y2, ychange, lsr, dist_cent, jaccard, sorensen, uniq_y1, uniq_y2
## 
## ℹ Use `spec()` to retrieve the full column specification for this data.
## ℹ Specify the column types or set `show_col_types = FALSE` to quiet this message.

df_ov
## # A tibble: 720 × 10
##    BASIN    y1    y2 ychange     lsr dist_cent  jaccard sorensen uniq_y1 uniq_y2
##    <chr> <dbl> <dbl>   <dbl>   <dbl>     <dbl>    <dbl>    <dbl>   <dbl>   <dbl>
##  1 BLK    2007  2008       1 -8.24       0.736 0.000109 0.000219   1.00    0.586
##  2 BLK    2007  2009       2 -4.58       1.38  0.00239  0.00477    0.998   0.765
##  3 BLK    2007  2010       3  2.07       3.00  0.0492   0.0937     0.581   0.947
##  4 BLK    2007  2011       4 -1.48       0.986 0.0799   0.148      0.909   0.602
##  5 BLK    2007  2012       5 -7.06       0.971 0.000401 0.000802   1.00    0.533
##  6 BLK    2007  2013       6  0.0145     0.795 0.167    0.286      0.712   0.716
##  7 BLK    2007  2014       7 -0.715      0.623 0.180    0.306      0.772   0.535
##  8 BLK    2007  2015       8  0.165      0.861 0.180    0.305      0.668   0.719
##  9 BLK    2007  2016       9 -1.40       1.37  0.0701   0.131      0.918   0.669
## 10 BLK    2007  2017      10 -0.480      0.702 0.0928   0.170      0.862   0.778
## # ℹ 710 more rows
…
