Workshop 4: Community traits – BSC6926-B53B Spring 2025
…
# load trait data
df_tr = read_csv('data/coral_traits.csv') 
## Rows: 26 Columns: 6
## ── Column specification ────────────────────────────────────────────────────────
## Delimiter: ","
## chr (1): species
## dbl (5): corallite diameter, growth rate, skeletal density, symbiodinium den...
## 
## ℹ Use `spec()` to retrieve the full column specification for this data.
## ℹ Specify the column types or set `show_col_types = FALSE` to quiet this message.
df_tr
## # A tibble: 26 × 6
##    species                 `corallite diameter` `growth rate` `skeletal density`
##    <chr>                                  <dbl>         <dbl>              <dbl>
##  1 Acropora cervicornis                 -1.14          2.33              -0.0978
##  2 Acropora palmata                     -1.87          1.94               0.587 
##  3 Agaricia agaricites                  -0.401        -1.46               0.935 
##  4 Colpophyllia natans                   2.36         -0.274             -2.47  
##  5 Diploria labyrinthifor…               0.965        -0.562             -0.172 
##  6 Montastraea cavernosa                 0.792        -0.456              0.321 
##  7 Orbicella annularis                  -0.289        -0.0359             0.373 
##  8 Orbicella faveolata                  -0.326         0.103             -0.958 
##  9 Orbicella franksi                    -0.0173       -0.329              1.08  
## 10 Porites astreoides                   -0.962        -0.641             -0.0403
## # ℹ 16 more rows
## # ℹ 2 more variables: `symbiodinium density` <dbl>,
## #   `colony maximum diameter` <dbl>

# load benthic community percent cover data across regions
# pc = percent cover 0-100
# pc_sd = standard deviation in percent cover
df_ben = read_csv('data/PR_coral_2021.csv')
## Rows: 332 Columns: 8
## ── Column specification ────────────────────────────────────────────────────────
## Delimiter: ","
## chr (4): site, region, reef_zone, species
## dbl (4): depth, dist_river, dist_mpa, pc
## 
## ℹ Use `spec()` to retrieve the full column specification for this data.
## ℹ Specify the column types or set `show_col_types = FALSE` to quiet this message.
df_ben
## # A tibble: 332 × 8
##    site  region    reef_zone  depth dist_river dist_mpa species               pc
##    <chr> <chr>     <chr>      <dbl>      <dbl>    <dbl> <chr>              <dbl>
##  1 beril southwest shelf edge    20       12.2        0 Agaricia agaricit… 0.842
##  2 beril southwest shelf edge    20       12.2        0 Madracis decactis  0.038
##  3 beril southwest shelf edge    20       12.2        0 Meandrina meandri… 0.268
##  4 beril southwest shelf edge    20       12.2        0 Montastraea caver… 1.74 
##  5 beril southwest shelf edge    20       12.2        0 Orbicella annular… 2.60 
##  6 beril southwest shelf edge    20       12.2        0 Orbicella faveola… 4.31 
##  7 beril southwest shelf edge    20       12.2        0 Orbicella franksi  0.9  
##  8 beril southwest shelf edge    20       12.2        0 Porites astreoides 1.24 
##  9 beril southwest shelf edge    20       12.2        0 Porites porites    1.18 
## 10 beril southwest shelf edge    20       12.2        0 Pseudodiploria st… 0.318
## # ℹ 322 more rows

Prep data

To generate hypervolumes we need to combine the trait data with all of the benthic site information.

df = df_ben |> 
  # join trait data to benthic data
  inner_join(df_tr, by = 'species')  |> 
  # drop species since don't need for hypervolume
  select(-species)

df 
## # A tibble: 332 × 12
##    site  region   reef_zone depth dist_river dist_mpa    pc `corallite diameter`
##    <chr> <chr>    <chr>     <dbl>      <dbl>    <dbl> <dbl>                <dbl>
##  1 beril southwe… shelf ed…    20       12.2        0 0.842              -0.401 
##  2 beril southwe… shelf ed…    20       12.2        0 0.038              -0.104 
##  3 beril southwe… shelf ed…    20       12.2        0 0.268              -0.104 
##  4 beril southwe… shelf ed…    20       12.2        0 1.74                0.792 
##  5 beril southwe… shelf ed…    20       12.2        0 2.60               -0.289 
##  6 beril southwe… shelf ed…    20       12.2        0 4.31               -0.326 
##  7 beril southwe… shelf ed…    20       12.2        0 0.9                -0.0173
##  8 beril southwe… shelf ed…    20       12.2        0 1.24               -0.962 
##  9 beril southwe… shelf ed…    20       12.2        0 1.18               -0.104 
## 10 beril southwe… shelf ed…    20       12.2        0 0.318               1.02  
## # ℹ 322 more rows
## # ℹ 4 more variables: `growth rate` <dbl>, `skeletal density` <dbl>,
## #   `symbiodinium density` <dbl>, `colony maximum diameter` <dbl>
…
